Team Safe Istanbul’s Project Lab -
…
Show the code

library(readxl)
nufus <- read_excel("belediye_nufuslar_2019.xlsx")
str(nufus)

tibble [39 × 2] (S3: tbl_df/tbl/data.frame)
 $ Belediyeler        : chr [1:39] "Adalar Belediyesi" "Arnavutköy Belediyesi" "Ataşehir Belediyesi" "Avcılar Belediyesi" ...
 $ 2019 yılı nüfusları: num [1:39] 15238 282488 425094 448882 745125 ...

Show the code

head(nufus, n = 30L)

# A tibble: 30 × 2
   Belediyeler             `2019 yılı nüfusları`
   <chr>                                   <dbl>
 1 Adalar Belediyesi                       15238
 2 Arnavutköy Belediyesi                  282488
 3 Ataşehir Belediyesi                    425094
 4 Avcılar Belediyesi                     448882
 5 Bağcılar Belediyesi                    745125
 6 Bahçelievler Belediyesi                611059
 7 Bakırköy Belediyesi                    229239
 8 Başakşehir Belediyesi                  460259
 9 Bayrampaşa Belediyesi                  274735
10 Beşiktaş Belediyesi                    182649
# ℹ 20 more rows
…
